Fs={
F[3, 1]->(9.5840044335513541*10^(-01)+I*(5.1190834233258020*10^(-01))),
F[3, 2]->(5.1467368593654452*10^(+00)+I*(-4.1322810436998445*10^(+00))),
F[3, 3]->(-1.0057724791502826*10^(-04)+I*(-1.2126159600237785*10^(-04))),
F[3, 4]->(6.6434153352059768*10^(+00)+I*(5.4975262781332663*10^(+00))),
F[3, 5]->(3.1061604651584713*10^(+00)+I*(2.7740795182581719*10^(+00))),
F[3, 6]->(-4.1570780809476693*10^(-01)+I*(0.0000000000000000*10^(+00))),
F[3, 7]->(-5.8203489753158033*10^(-01)+I*(-4.3999009017567250*10^(+00))),
F[3, 8]->(9.3918709880577194*10^(-06)+I*(0.0000000000000000*10^(+00))),
F[3, 9]->(9.0280268740414393*10^(-01)+I*(-7.0756005751600037*10^(-01))),
F[3, 10]->(2.7972569049796578*10^(+00)+I*(1.8073164860332622*10^(+00))),
F[3, 11]->(1.2295677135142895*10^(+00)+I*(1.4299491897520920*10^(+00))),
F[3, 12]->(1.1917751086799118*10^(+00)+I*(-2.5267003291008256*10^(+00))),
F[3, 13]->(-1.9242832381491839*10^(+00)+I*(-9.1039142604977137*10^(+00))),
F[3, 14]->(5.8821672389961632*10^(-01)+I*(0.0000000000000000*10^(+00))),
F[3, 15]->(4.1054899976003334*10^(+00)+I*(-1.3043221304921024*10^(+00))),
F[3, 16]->(-1.7698561309477179*10^(-01)+I*(0.0000000000000000*10^(+00))),
F[3, 17]->(-2.2926637404157102*10^(+00)+I*(0.0000000000000000*10^(+00))),
F[3, 18]->(1.8906577513799836*10^(+00)+I*(-1.4310459054305844*10^(+00))),
F[3, 19]->(3.5334402805737266*10^(+00)+I*(-2.6087325154291074*10^(-01))),
F[3, 20]->(-7.1345507772907746*10^(-01)+I*(1.5311973947391483*10^(+01))),
F[3, 21]->(2.0857557383656404*10^(+00)+I*(-1.5357250269977412*10^(+00))),
F[3, 22]->(-6.0652295133616905*10^(+00)+I*(1.4483974903503629*10^(+01))),
F[3, 23]->(-3.9787300220557764*10^(-01)+I*(2.5291629077341182*10^(-01))),
F[3, 24]->(-8.7628107328998006*10^(-05)+I*(5.4702074053296443*10^(-04))),
F[3, 25]->(8.7020942696038328*10^(-01)+I*(-1.2668692033791871*10^(+00))),
F[3, 27]->(-1.6053278810299041*10^(+01)+I*(-5.0003000643843851*10^(+00))),
F[3, 28]->(1.6476158661240124*10^(+01)+I*(-3.0839352564826794*10^(+00))),
F[3, 29]->(-9.9221038423364725*10^(+00)+I*(2.0459157187336658*10^(+01))),
F[3, 30]->(-4.4011948071849318*10^(+01)+I*(3.4891279778711514*10^(+01))),
F[3, 31]->(1.9868486445923939*10^(+00)+I*(4.2029564772477492*10^(+00))),
F[3, 32]->(3.1913053168105998*10^(-01)+I*(2.3452168203736923*10^(+00))),
F[3, 33]->(1.0835894965247053*10^(+00)+I*(-2.3653070332079324*10^(+01))),
F[3, 34]->(-1.7493828392499060*10^(+00)+I*(0.0000000000000000*10^(+00))),
F[3, 35]->(-2.9731948926248730*10^(+00)+I*(3.3870163273479785*10^(+00))),
F[3, 36]->(-1.5693567407199112*10^(+00)+I*(-3.2332823482438879*10^(+00))),
F[3, 37]->(7.0820357498777442*10^(-01)+I*(-4.0940977909901548*10^(+00))),
F[3, 38]->(-8.9966098297781100*10^(-02)+I*(2.2202151376662481*10^(+01))),
F[3, 39]->(1.5321974564343765*10^(+00)+I*(0.0000000000000000*10^(+00))),
F[3, 40]->(-1.0554406560597243*10^(+01)+I*(0.0000000000000000*10^(+00))),
F[3, 41]->(-5.1792283773799221*10^(+00)+I*(1.3515644464271270*10^(+01))),
F[3, 42]->(-3.2790275627583232*10^(+00)+I*(2.3426660459100912*10^(+01))),
F[3, 43]->(-9.6606882728644639*10^(-01)+I*(3.4809301230072270*10^(-01))),
F[3, 44]->(6.1586354996358752*10^(+00)+I*(-2.2862249643435483*10^(+01))),
F[3, 45]->(6.6171852392396113*10^(-01)+I*(2.9270556094778639*10^(-02))),
F[3, 47]->(2.0779724409930931*10^(+00)+I*(-2.9107969746601896*10^(+01))),
F[3, 48]->(-3.0904913184718993*10^(+01)+I*(3.9924037073315887*10^(+01))),
F[3, 49]->(-5.2288593946366305*10^(+01)+I*(-1.7171002343851320*10^(+01))),
F[3, 50]->(-6.5468479586382529*10^(+01)+I*(4.1313054977817330*10^(+01))),
F[3, 51]->(-1.6030716644929024*10^(+00)+I*(-1.7116545024320087*10^(+00))),
F[3, 52]->(2.9483041326307129*10^(+00)+I*(8.5335833499348190*10^(+00))),
F[3, 53]->(-4.1442410099038653*10^(+00)+I*(2.0634654077820191*10^(+00))),
F[3, 54]->(1.3393801110255601*10^(-01)+I*(0.0000000000000000*10^(+00))),
F[3, 55]->(7.9703411222510123*10^(-01)+I*(8.6907942550018968*10^(-01))),
F[3, 56]->(-3.4535000980518902*10^(+00)+I*(-4.2020705066311610*10^(+00))),
F[3, 57]->(1.5177110504544988*10^(+00)+I*(2.0939424523050318*10^(+00))),
F[3, 58]->(-4.7090130674170824*10^(-02)+I*(0.0000000000000000*10^(+00))),
F[3, 59]->(-1.1498694886270653*10^(+00)+I*(0.0000000000000000*10^(+00))),
F[3, 60]->(-5.4766602624099825*10^(-01)+I*(1.1891162779236453*10^(+01))),
F[3, 61]->(1.9709379855006741*10^(+00)+I*(8.0918082338587141*10^(+00))),
F[3, 62]->(-9.8344792949320381*10^(-01)+I*(1.2992795627006817*10^(+00))),
F[3, 63]->(7.0077483301368138*10^(-01)+I*(-6.0112663880550921*10^(-01))),
F[3, 65]->(-1.0877585091433961*10^(+01)+I*(5.1331690093799951*10^(+00))),
F[3, 66]->(1.0612904144638104*10^(+01)+I*(-1.6071673791986608*10^(+01))),
F[3, 67]->(-3.6058203536835848*10^(+01)+I*(1.2338808170130889*10^(+01))),
F[3, 68]->(-3.2979183221981458*10^(+01)+I*(2.2775227355666555*10^(+01))),
F[3, 69]->(3.5792986592975842*10^(+00)+I*(-4.8191006544420842*10^(+00))),
F[3, 70]->(1.2299143490048299*10^(+00)+I*(-1.0669721701450743*10^(+00))),
F[3, 71]->(2.5544321894672688*10^(+00)+I*(-6.4070487287865574*10^(-01))),
F[3, 73]->(-1.8940301792178107*10^(+00)+I*(-1.5402351952706152*10^(+01))),
F[3, 74]->(1.3850361193994434*10^(+01)+I*(4.6035812439066408*10^(+00))),
F[3, 75]->(2.6854613654942991*10^(+01)+I*(2.1485294513354994*10^(+01))),
F[3, 76]->(1.3473809860468890*10^(+01)+I*(-2.1394581451145843*10^(+01))),
F[3, 77]->(-3.7870472650575016*10^(+00)+I*(3.3536064032335133*10^(+00))),
F[3, 78]->(-9.2701251819672592*10^(-01)+I*(1.2451552765372709*10^(+00))),
F[3, 79]->(-1.4907994503393864*10^(+00)+I*(1.4859268935784911*10^(+00))),
F[3, 80]->(-1.0225042385829244*10^(+00)+I*(1.5928331502963098*10^(+00))),
F[3, 81]->(3.0201360187951465*10^(-01)+I*(-1.4853888392629859*10^(+00))),
F[3, 82]->(-2.2515303586591653*10^(+00)+I*(2.9755232369144113*10^(-01))),
F[4, 1]->(-3.0005508600081914*10^(+00)+I*(6.0218075840833878*10^(+00))),
F[4, 2]->(1.8024793579025101*10^(+01)+I*(5.4247780200828597*10^(+00))),
F[4, 3]->(-2.5619444539600746*10^(-04)+I*(-9.8463247604349503*10^(-04))),
F[4, 4]->(-1.0835811230234533*10^(+00)+I*(4.1741809623657744*10^(+01))),
F[4, 5]->(-4.1256681728442164*10^(+00)+I*(1.6032505383763741*10^(+01))),
F[4, 6]->(-1.2918521077149549*10^(+01)+I*(-2.6119691919008723*10^(+00))),
F[4, 7]->(9.2172820759288072*10^(+00)+I*(-1.0946676461620539*10^(+01))),
F[4, 8]->(-9.5159844815797567*10^(-06)+I*(0.0000000000000000*10^(+00))),
F[4, 9]->(9.3820952803162783*10^(-01)+I*(5.6724765807799606*10^(+00))),
F[4, 10]->(-6.0282353334636873*10^(+00)+I*(6.2768010849103195*10^(+00))),
F[4, 11]->(2.8658937566958365*10^(+00)+I*(1.1306777375637518*10^(+01))),
F[4, 12]->(1.1008461051239491*10^(+01)+I*(7.4881438523199737*10^(+00))),
F[4, 13]->(1.7162998835556866*10^(+01)+I*(-2.6533223261974015*10^(+01))),
F[4, 14]->(-1.0385988767339128*10^(+01)+I*(3.6958746770433812*10^(+00))),
F[4, 15]->(5.0700085516836051*10^(+00)+I*(1.1463387898788113*10^(+01))),
F[4, 16]->(9.0396552784965389*10^(-02)+I*(0.0000000000000000*10^(+00))),
F[4, 17]->(-6.9152435864794111*10^(+00)+I*(0.0000000000000000*10^(+00))),
F[4, 18]->(9.1564841942446336*10^(+00)+I*(1.1879353004375908*10^(+01))),
F[4, 19]->(-1.8697223176848453*10^(+01)+I*(1.0709827352151454*10^(+01))),
F[4, 20]->(-8.2311923470522075*10^(+00)+I*(5.3971210019773636*10^(+01))),
F[4, 21]->(2.8234402642627678*10^(+01)+I*(-2.6467860938484357*10^(+01))),
F[4, 22]->(1.4322289883468457*10^(+01)+I*(1.3105189809664498*10^(+01))),
F[4, 23]->(5.9325663324868131*10^(+01)+I*(2.0038533618151469*10^(+01))),
F[4, 24]->(-5.6905244730942989*10^(+01)+I*(-7.7236847240694342*10^(+00))),
F[4, 25]->(1.7746113235333674*10^(+00)+I*(-8.1013604530618579*10^(+00))),
F[4, 26]->(-1.3832698508338937*10^(-03)+I*(3.0101893938285363*10^(-04))),
F[4, 27]->(7.7197900919131790*10^(+00)+I*(5.1396667717265601*10^(+00))),
F[4, 28]->(6.4485333075404370*10^(+00)+I*(7.9496079986523593*10^(-01))),
F[4, 29]->(-7.1004291514423112*10^(+00)+I*(-2.8739224711169506*10^(+01))),
F[4, 30]->(-1.1454282427247449*10^(+01)+I*(1.8947732640256152*10^(+01))),
F[4, 31]->(-1.5970978675602019*10^(+01)+I*(-1.0367624103018464*10^(+01))),
F[4, 32]->(-3.7772155925258488*10^(+01)+I*(-7.1615906608546709*10^(+01))),
F[4, 33]->(2.2495828138606591*10^(+01)+I*(-8.4045875439558362*10^(+00))),
F[4, 34]->(8.5570961257740237*10^(+00)+I*(-3.4849780287260558*10^(+01))),
F[4, 35]->(-8.9266461418345173*10^(+00)+I*(-1.6676619675112498*10^(+01))),
F[4, 36]->(5.5054067495261778*10^(+00)+I*(2.6363958261720576*10^(+01))),
F[4, 37]->(3.5276413218704505*10^(+01)+I*(-6.3381304526391542*10^(+00))),
F[4, 38]->(2.8415800539790531*10^(+01)+I*(-7.7580275843690796*10^(+00))),
F[4, 39]->(-6.5905028445907732*10^(+00)+I*(-1.5153475246603962*10^(+00))),
F[4, 40]->(2.7100235845238117*10^(+01)+I*(-5.5448927895993965*10^(+00))),
F[4, 41]->(-1.7749279694237352*10^(+00)+I*(7.7339398418800780*10^(+00))),
F[4, 42]->(-1.7605063040409419*10^(+01)+I*(4.4763170837833499*10^(+01))),
F[4, 43]->(3.7238641894044065*10^(+01)+I*(-8.8603356997507660*10^(+01))),
F[4, 44]->(1.9619986340377937*10^(+00)+I*(-2.2961063361954785*10^(+01))),
F[4, 46]->(1.6659946359154610*10^(+01)+I*(-2.5597448868958960*10^(+01))),
F[4, 47]->(5.1549015871648320*10^(+00)+I*(-5.4954626243026476*10^(+00))),
F[4, 49]->(-1.8319375936548055*10^(+00)+I*(7.7263047287770092*10^(-01))),
F[4, 50]->(1.7567725985771368*10^(+01)+I*(1.0256776777456778*10^(+02))),
F[4, 51]->(-2.5113447186840712*10^(+00)+I*(3.9246210287085601*10^(+00))),
F[4, 52]->(-2.3513216716569051*10^(+01)+I*(-8.4579483239533971*10^(+01))),
F[4, 53]->(2.6152790720838979*10^(+01)+I*(1.1092256381643281*10^(+02))),
F[4, 55]->(-1.5862236256563355*10^(+02)+I*(-1.2958177792087102*10^(+02))),
F[4, 56]->(-2.1069825265251566*10^(+02)+I*(-2.0673597204566499*10^(+02))),
F[4, 57]->(-1.6436230391284573*10^(+02)+I*(-1.4799165528896629*10^(+02))),
F[4, 58]->(-2.1767683196083908*10^(+02)+I*(-1.9013671800966853*10^(+02))),
F[4, 59]->(-6.2185369228218043*10^(+01)+I*(-1.1813005837167815*10^(+01))),
F[4, 60]->(-1.4198628730346053*10^(+02)+I*(-6.1558986656745603*10^(+01))),
F[4, 62]->(2.4255042434683933*10^(+01)+I*(-6.7460257704378336*10^(+01))),
F[4, 65]->(7.5216556991929928*10^(-01)+I*(2.9245943618079263*10^(+01))),
F[4, 66]->(-5.2102246477602092*10^(+00)+I*(9.2245070484817724*10^(+00))),
F[4, 67]->(4.5116856486634212*10^(+01)+I*(-5.9575911340920953*10^(+01))),
F[4, 68]->(-1.4964696088782246*10^(+00)+I*(0.0000000000000000*10^(+00))),
F[4, 69]->(-1.4146982944494120*10^(+01)+I*(-2.6864705031791631*10^(+00))),
F[4, 70]->(-6.0738691573922665*10^(-01)+I*(-2.2272476382556874*10^(+01))),
F[4, 71]->(9.5340724282643912*10^(+00)+I*(-1.0665503637845303*10^(+01))),
F[4, 72]->(-4.1433308922388449*10^(+01)+I*(5.9968787781218083*10^(+01))),
F[4, 73]->(1.4104167195888764*10^(+00)+I*(0.0000000000000000*10^(+00))),
F[4, 74]->(-2.3364487393545318*10^(+01)+I*(0.0000000000000000*10^(+00))),
F[4, 75]->(-1.2861147041355608*10^(+01)+I*(2.7615487908251055*10^(+01))),
F[4, 76]->(1.1726081769336737*10^(+01)+I*(-3.9589649164521916*10^(+01))),
F[4, 77]->(1.0362297804443312*10^(+01)+I*(8.2259133975295953*10^(+00))),
F[4, 78]->(1.2244164427128774*10^(+02)+I*(-1.8996058898326982*10^(+01))),
F[4, 79]->(-8.4088344799094529*10^(+01)+I*(1.7875430869546847*10^(+01))),
F[4, 80]->(-1.2625511790573103*10^(+01)+I*(7.7755418697128142*10^(+00))),
F[4, 81]->(4.6997438219944229*10^(+01)+I*(-2.8650783806086334*10^(+01))),
F[4, 82]->(5.4326858822437011*10^(+01)+I*(-2.7562405442987867*10^(+01))),
F[4, 83]->(9.6759196305410189*10^(+00)+I*(-7.1799686818330430*10^(+00))),
F[4, 84]->(-1.0155647464083943*10^(+01)+I*(-1.5309021086295509*10^(+01))),
F[4, 85]->(-9.4134185620588951*10^(+01)+I*(-2.0798157553461539*10^(+02))),
F[4, 86]->(1.9946511242636458*10^(+01)+I*(-1.0202334825820955*10^(+01))),
F[4, 87]->(1.2153773684439408*10^(+01)+I*(-1.9960945383268211*10^(+01))),
F[4, 88]->(3.1233467518631199*10^(+00)+I*(-1.0598273852384519*10^(+01))),
F[4, 89]->(1.1019649841754733*10^(+02)+I*(-1.7418771177107441*10^(+01))),
F[4, 90]->(7.6909996826527234*10^(+01)+I*(-1.7627262991593440*10^(+01))),
F[4, 91]->(-8.6517427233405453*10^(+00)+I*(5.6390204600004470*10^(+00))),
F[4, 92]->(-4.1905297968523058*10^(+01)+I*(2.6296603144137968*10^(+01))),
F[4, 93]->(1.3674897531761008*10^(+01)+I*(-9.5876834317269619*10^(+00))),
F[4, 94]->(6.5804460983275192*10^(+01)+I*(-2.0786235521598911*10^(+01))),
F[4, 95]->(3.3344672069665009*10^(+01)+I*(-1.1864708656219435*10^(+01))),
F[4, 97]->(-1.5600393780904643*10^(+01)+I*(1.3821938257550761*10^(+02))),
F[4, 98]->(1.7809157647893237*10^(+01)+I*(7.9410330111249863*10^(+01))),
F[4, 100]->(-1.9578411495092609*10^(+00)+I*(-2.0415190272408159*10^(+00))),
F[4, 101]->(1.1101866924646544*10^(+02)+I*(1.1942729812607850*10^(+02))),
F[4, 102]->(-4.4421626605166029*10^(+00)+I*(2.4086987821609638*10^(+00))),
F[4, 103]->(7.1345089695552431*10^(+01)+I*(-4.7549080708569335*10^(+01))),
F[4, 104]->(-1.1984371887002251*10^(+02)+I*(2.1271175389892960*10^(+02))),
F[4, 106]->(-6.1048946831277121*10^(+01)+I*(-1.5926424208935936*10^(+02))),
F[4, 107]->(-8.0248137179347935*10^(+01)+I*(-1.4419051665165659*10^(+02))),
F[4, 108]->(-7.5819297045053332*10^(+01)+I*(-7.5040069898059500*10^(+01))),
F[4, 109]->(-8.9153307862413158*10^(+01)+I*(-2.6821173094455310*10^(+02))),
F[4, 110]->(-3.2514449860104952*10^(+02)+I*(-2.4917560835189374*10^(+02))),
F[4, 111]->(2.2567309638343364*10^(+01)+I*(1.4174008194431583*10^(+01))),
F[4, 112]->(-4.7455570978668177*10^(+01)+I*(2.9912349285354921*10^(+01))),
F[4, 113]->(3.8752156500809086*10^(+01)+I*(-2.6370745780007287*10^(+01))),
F[4, 114]->(-2.7257893615739260*10^(+01)+I*(1.0732039343787012*10^(+01))),
F[4, 115]->(-4.2460501521606968*10^(+00)+I*(-1.4095378595888288*10^(+01))),
F[4, 116]->(-1.5168171333529557*10^(+01)+I*(2.8001488385641419*10^(+01))),
F[4, 117]->(-6.5700384636007820*10^(+00)+I*(-9.7609619420353937*10^(+00))),
F[4, 118]->(-1.5035303807455269*10^(-01)+I*(0.0000000000000000*10^(+00))),
F[4, 119]->(2.2318717936404338*10^(+00)+I*(7.2777390510548354*10^(+00))),
F[4, 120]->(6.5969634703961386*10^(+00)+I*(-2.0013153845449786*10^(+01))),
F[4, 121]->(-3.9452459499626946*10^(+00)+I*(9.0413271325210847*10^(+00))),
F[4, 122]->(7.8657108223801425*10^(-02)+I*(0.0000000000000000*10^(+00))),
F[4, 123]->(-4.6300410554736882*10^(+00)+I*(0.0000000000000000*10^(+00))),
F[4, 124]->(-8.1068658478203233*10^(+00)+I*(4.3950347140984789*10^(+01))),
F[4, 125]->(2.7076296284257864*10^(+01)+I*(-8.2441996191018045*10^(+00))),
F[4, 126]->(7.2821431688661331*10^(+00)+I*(2.8571584945549994*10^(+01))),
F[4, 127]->(2.9414543933300429*10^(+01)+I*(-3.6297815388422112*10^(+00))),
F[4, 128]->(-2.6499940837280803*10^(+01)+I*(6.7978504764741352*10^(+00))),
F[4, 129]->(-7.2738025619054856*10^(+00)+I*(-1.8437868481356303*10^(+00))),
F[4, 130]->(-3.1676361963601540*10^(+01)+I*(6.1073663438792956*10^(+00))),
F[4, 131]->(-3.7503833957218717*10^(+01)+I*(1.4737141069436950*10^(+00))),
F[4, 132]->(1.7548836628264923*10^(+00)+I*(5.8351565845500453*10^(+00))),
F[4, 133]->(-1.4154023822478806*10^(+01)+I*(-2.6061083871744444*10^(+01))),
F[4, 134]->(-9.1426101373567775*10^(+01)+I*(-7.2424690790639175*10^(+01))),
F[4, 135]->(7.7862270875289132*10^(+00)+I*(-5.6735304581696234*10^(+01))),
F[4, 136]->(-2.2195732161211552*10^(+01)+I*(-2.8000913699277191*10^(+01))),
F[4, 137]->(4.3972389075254895*10^(+01)+I*(2.2427723330213968*10^(+01))),
F[4, 138]->(4.8137737003488766*10^(+01)+I*(7.1675620400823075*10^(+00))),
F[4, 139]->(-1.7723544919372181*10^(+00)+I*(-6.4861278700987963*10^(+00))),
F[4, 140]->(1.1117680140012165*10^(+01)+I*(-2.4594883383856994*10^(+00))),
F[4, 141]->(7.1622019123966858*10^(+00)+I*(9.6502748425214002*10^(-01))),
F[4, 143]->(2.4483576372936074*10^(+01)+I*(-3.7795956400465194*10^(+01))),
F[4, 144]->(6.6129043989068688*10^(+00)+I*(-3.7857715201393507*10^(+00))),
F[4, 145]->(-3.6949085699864796*10^(+01)+I*(-3.6629975809651384*10^(+01))),
F[4, 146]->(-3.3722499594442183*10^(+00)+I*(1.6427759334171790*10^(+00))),
F[4, 147]->(1.8056088109284062*10^(+01)+I*(1.3790582377113310*10^(+02))),
F[4, 148]->(-2.6436282527901622*10^(+00)+I*(2.8646557794076477*10^(+00))),
F[4, 149]->(1.3809840354409550*10^(+01)+I*(-1.0612245122494548*10^(+01))),
F[4, 150]->(-1.0872102513044180*10^(+01)+I*(1.1389751691828323*10^(+01))),
F[4, 152]->(-9.7800832627933573*10^(+01)+I*(-1.5131774279757909*10^(+02))),
F[4, 153]->(-1.6300539258627265*10^(+02)+I*(-2.1335939031208423*10^(+02))),
F[4, 154]->(-9.0994877674180088*10^(+01)+I*(-9.0350103111682586*10^(+01))),
F[4, 155]->(-1.3661913881981059*10^(+02)+I*(-7.3119686034979537*10^(+01))),
F[4, 157]->(4.1663575400992876*10^(+01)+I*(-4.3810283756770730*10^(+01))),
F[4, 160]->(3.4860964790967763*10^(-01)+I*(0.0000000000000000*10^(+00))),
F[4, 161]->(-4.3196948200346998*10^(+00)+I*(-1.8809773311100450*10^(+01))),
F[4, 162]->(7.0053717597953931*10^(+00)+I*(0.0000000000000000*10^(+00))),
F[4, 163]->(1.5811210522441599*10^(-01)+I*(0.0000000000000000*10^(+00))),
F[4, 164]->(6.7877981202481692*10^(+00)+I*(2.7763007514982661*10^(+01))),
F[4, 165]->(-1.5880407056358198*10^(+01)+I*(0.0000000000000000*10^(+00))),
F[4, 166]->(-1.5338411915251056*10^(+01)+I*(0.0000000000000000*10^(+00))),
F[4, 167]->(1.1554284475313970*10^(+01)+I*(0.0000000000000000*10^(+00))),
F[4, 168]->(2.3007772385444710*10^(+01)+I*(1.1171442977922396*10^(+01))),
F[4, 169]->(1.5455767492361407*10^(+00)+I*(1.9279528833389705*10^(+01))),
F[4, 170]->(-7.4691636651458371*10^(+00)+I*(1.9134885943512280*10^(+01))),
F[4, 171]->(3.0475855083286095*10^(+01)+I*(-1.2973789745142245*10^(+01))),
F[4, 172]->(1.1980417801771299*10^(-04)+I*(3.5596876441886926*10^(-04))),
F[4, 173]->(1.1981399461329586*10^(+01)+I*(1.6470273376068938*10^(+01))),
F[4, 174]->(6.6845313652723419*10^(+00)+I*(4.1662118138815716*10^(+00))),
F[4, 175]->(-1.0686477104582590*10^(+01)+I*(2.0907035569920076*10^(+01))),
F[4, 176]->(-2.8803644703684155*10^(+00)+I*(-6.2363826523883574*10^(+00))),
F[4, 177]->(-6.4164717360645862*10^(-01)+I*(0.0000000000000000*10^(+00))),
F[4, 178]->(1.2001488597354584*10^(+01)+I*(0.0000000000000000*10^(+00))),
F[4, 179]->(4.4470699914279460*10^(-01)+I*(3.4796680749341320*10^(+01))),
F[4, 180]->(-2.6606239737629345*10^(+00)+I*(5.0703808209220880*10^(-02))),
F[4, 181]->(-1.8379564403122647*10^(+01)+I*(-1.9134885943512280*10^(+01))),
F[4, 182]->(-6.2874686586897006*10^(+00)+I*(-4.3492993977842964*10^(+00))),
F[4, 183]->(-7.9891512570190155*10^(+00)+I*(8.0991188461093344*10^(+00))),
F[4, 184]->(-3.1141859944722512*10^(+01)+I*(1.2986271149001741*10^(+01))),
F[4, 185]->(-1.0362075410643079*10^(+01)+I*(1.0827167814165247*10^(+02))),
F[4, 186]->(1.4971050809974329*10^(+01)+I*(-6.1160364771365366*10^(+01))),
F[4, 187]->(-1.3067743569515072*10^(+01)+I*(6.2373939293424101*10^(+00))),
F[4, 190]->(-1.3767404278569839*10^(+00)+I*(-1.7158311460239641*10^(+00))),
F[4, 191]->(-9.1144495654853230*10^(+00)+I*(3.7609917069843156*10^(+01))),
F[4, 192]->(-8.9279991884272860*10^(+00)+I*(1.3279484892206408*10^(-01))),
F[4, 193]->(1.8600880038699891*10^(+01)+I*(-9.8766537572354054*10^(+01))),
F[4, 194]->(2.6340024846952002*10^(+01)+I*(1.1451238653810589*10^(+02))),
F[4, 196]->(-2.4836800376034353*10^(+02)+I*(-2.8085202862499318*10^(+02))),
F[4, 197]->(3.6900646575780613*10^(+01)+I*(8.4537441352510683*10^(+01))),
F[4, 198]->(4.2830795004970312*10^(+01)+I*(1.3220308659763452*10^(+02))),
F[4, 199]->(1.9194052573734325*10^(+01)+I*(2.5851330953424629*10^(+01))),
F[4, 200]->(9.8777350829430247*10^(+01)+I*(-1.7732739025893113*10^(+02))),
F[4, 201]->(-2.7984252396040148*10^(+01)+I*(2.4330251768610893*10^(+01))),
F[4, 202]->(5.5269141363871395*10^(+00)+I*(-1.6641116316632548*10^(+01))),
F[4, 203]->(-1.9105684791432836*10^(+01)+I*(-3.5258240804961311*10^(+01))),
F[4, 204]->(-9.9012882728120388*10^(+00)+I*(1.8830714230617653*10^(+00))),
F[4, 205]->(4.0838171670132428*10^(-01)+I*(-1.2139346286934838*10^(+01))),
F[4, 206]->(3.0076022171509308*10^(+01)+I*(3.5646066186566287*10^(+01))),
F[4, 207]->(-1.7285915769123982*10^(+01)+I*(-1.1699659390763081*10^(+01))),
F[4, 208]->(-1.3595582855047345*10^(+01)+I*(-3.5676465198096892*10^(+01))),
F[4, 209]->(2.5827503271643479*10^(+01)+I*(3.8088600497191052*10^(+01))),
F[4, 210]->(1.1342421435341352*10^(+01)+I*(0.0000000000000000*10^(+00))),
F[4, 211]->(5.0706886859621434*10^(+01)+I*(2.2648353004310529*10^(+01))),
F[4, 212]->(-2.6960783529561375*10^(+01)+I*(1.9000040689244067*10^(+01))),
F[4, 213]->(-2.5479128549777940*10^(+01)+I*(1.5001222975893706*10^(+01))),
F[4, 214]->(-8.2233716827773350*10^(+01)+I*(-3.5380758812992845*10^(+01))),
F[4, 215]->(2.0064833062403511*10^(+00)+I*(5.8812451479918231*10^(+00))),
F[4, 216]->(1.6876028261697503*10^(+01)+I*(-2.9698250298656337*10^(+01))),
F[4, 217]->(-2.5261071620232283*10^(+01)+I*(-3.6708722831526295*10^(+01))),
F[4, 218]->(1.0760696843401026*10^(+02)+I*(9.9560020463392476*10^(+01))),
F[4, 219]->(-1.3527447320732313*10^(+00)+I*(-5.1146153961037353*10^(+00))),
F[4, 220]->(3.7922997232747903*10^(+01)+I*(1.5582480682686185*10^(+02))),
F[4, 221]->(2.7879706347086014*10^(+01)+I*(-1.4484877445652931*10^(+01))),
F[4, 222]->(-1.6962113638938362*10^(+01)+I*(8.8076096465179319*10^(+01))),
F[4, 223]->(1.9463179015462863*10^(+01)+I*(1.0575585653616983*10^(+02))),
F[4, 224]->(-3.5825985550526809*10^(+01)+I*(2.6224211655541026*10^(+01))),
F[4, 225]->(3.3711777619661887*10^(+00)+I*(2.0211785034445446*10^(+00))),
F[4, 226]->(-3.7489273346574635*10^(+01)+I*(6.0798097359698858*10^(+01))),
F[4, 227]->(-1.0716256900664786*10^(+02)+I*(3.2607103256205008*10^(+01))),
F[4, 228]->(1.0324877422058165*10^(+02)+I*(-1.9401582327925772*10^(+02))),
F[4, 230]->(-1.0517559065723479*10^(+02)+I*(-6.6603838229202523*10^(+01))),
F[4, 231]->(-2.2522740378274484*10^(+01)+I*(-2.4031787045723962*10^(+02))),
F[4, 232]->(-4.6990216917790997*10^(+02)+I*(-1.4215371810428059*10^(+02))),
F[4, 233]->(-7.6470011876365618*10^(+01)+I*(2.2385378110067347*10^(+01))),
F[4, 234]->(3.9367912307364179*10^(+01)+I*(-1.6211037607617246*10^(+01))),
F[4, 235]->(2.7507129893084292*10^(-01)+I*(5.4664819157092817*10^(+00))),
F[4, 236]->(7.6186744706914378*10^(-01)+I*(-2.2290100032581549*10^(+01))),
F[4, 237]->(-1.8984312921722498*10^(+01)+I*(-3.5885965686029202*10^(+00))),
F[4, 238]->(3.7855417633948989*10^(+01)+I*(-1.2283125730016366*10^(+01))),
F[4, 239]->(-7.2566511899180188*10^(+00)+I*(-6.3419415862481170*10^(+00))),
F[4, 240]->(-5.0967401622134396*10^(+00)+I*(-6.6366577260391182*10^(+01))),
F[4, 241]->(4.1700326784126474*10^(+01)+I*(5.9919202566938210*10^(+01))),
F[4, 242]->(-2.5312189672912616*10^(+01)+I*(-3.6306292818699291*10^(+01))),
F[4, 243]->(1.0618469705010796*10^(+01)+I*(3.4834372586506337*10^(+00))),
F[4, 244]->(7.6271125351032403*10^(+00)+I*(4.9103121489140573*10^(+00))),
F[4, 245]->(-4.0554953047841593*10^(+01)+I*(3.0191328403642068*10^(+01))),
F[4, 246]->(1.0083348568020362*10^(+01)+I*(-7.6774866246263098*10^(+00))),
F[4, 247]->(-5.7611044036421262*10^(+01)+I*(-1.6283402139656509*10^(+01))),
F[4, 248]->(-5.5061861548448960*10^(+01)+I*(4.5248172359357088*10^(+00))),
F[4, 249]->(-2.3152389544252522*10^(+01)+I*(1.4477997599725222*10^(+02))),
F[4, 250]->(-1.0358462806022093*10^(+01)+I*(8.3983149759023412*10^(+00))),
F[4, 251]->(9.9044790750468991*10^(+01)+I*(1.1408879899900339*10^(+02))),
F[4, 252]->(-5.6517295488625878*10^(+00)+I*(-3.2937614605742835*10^(+00))),
F[4, 253]->(5.3079293109112413*10^(+01)+I*(1.4780832470529623*10^(+02))),
F[4, 254]->(3.1455092902204395*10^(+01)+I*(3.4197522125497755*10^(+01))),
F[4, 255]->(-4.6025371056769043*10^(-01)+I*(6.2994231958637386*10^(+00))),
F[4, 256]->(1.0454682890495047*10^(+01)+I*(1.2688992664947833*10^(+02))),
F[4, 257]->(-1.4286899111099791*10^(+02)+I*(-1.4583886300342797*10^(+02))),
F[4, 258]->(8.8481597871884532*10^(+01)+I*(1.4712587603645164*10^(+02))),
F[4, 260]->(-6.1870151295758646*10^(+01)+I*(-2.4467689483807288*10^(+02))),
F[4, 261]->(-9.5635947976198452*10^(+01)+I*(-1.7396240216294352*10^(+01))),
F[4, 264]->(9.5160326882964683*10^(-06)+I*(0.0000000000000000*10^(+00))),
F[4, 265]->(7.9011502862483349*10^(-05)+I*(6.3472612348871096*10^(-04))),
F[4, 266]->(8.4200400757178662*10^(-02)+I*(0.0000000000000000*10^(+00))),
F[4, 267]->(7.1609452963371267*10^(-01)+I*(5.5727746372742129*10^(+00))),
F[4, 268]->(-1.7577548232970983*10^(+01)+I*(0.0000000000000000*10^(+00))),
F[4, 269]->(6.0475924394701952*10^(+00)+I*(1.3695970671047078*10^(+01))),
F[4, 270]->(-6.3965692100461649*10^(-04)+I*(-3.3058351195064427*10^(-04))),
F[4, 271]->(-8.1887355290910122*10^(+00)+I*(-3.8665471575156483*10^(+00))),
F[4, 272]->(-1.0821035771974724*10^(+01)+I*(-1.5059448921650700*10^(+01))),
F[4, 273]->(3.8746507515847108*10^(+00)+I*(3.2949206400703508*10^(+00))),
F[4, 274]->(-6.2057621322095233*10^(+00)+I*(1.7071598332101960*10^(+01))),
F[4, 275]->(-7.8252643639713604*10^(+00)+I*(-8.9630045706569863*10^(+00))),
F[4, 276]->(-4.6240337675037591*10^(+00)+I*(-2.4496908422291250*10^(+00))),
F[4, 277]->(-2.0801014001741933*10^(+00)+I*(-3.7478021116960716*10^(+00))),
F[4, 278]->(1.0726155838125294*10^(+01)+I*(1.1677907275423269*10^(+01))),
F[4, 279]->(1.0235282896037285*10^(+01)+I*(3.3651305515345529*10^(+00))),
F[4, 280]->(3.5012472205444234*10^(-01)+I*(4.5796723709295399*10^(+00))),
F[4, 282]->(3.3532960109445842*10^(+00)+I*(-6.7021263398642690*10^(+00))),
F[4, 283]->(-4.2916895073497216*10^(+01)+I*(-2.2625444209453377*10^(+01))),
F[4, 284]->(-1.3538518309028676*10^(+01)+I*(-1.4661961908795167*10^(+01))),
F[4, 285]->(-3.9891480164446946*10^(+01)+I*(2.0246859684758059*10^(+02))),
F[4, 287]->(2.1916757185447370*10^(+01)+I*(-6.2308264499495870*10^(+01))),
F[4, 288]->(9.9832965722921344*10^(+01)+I*(1.7567656958246015*10^(+01))),
F[4, 289]->(-1.6833134979366822*10^(+01)+I*(-4.5776021634882895*10^(+01))),
F[4, 290]->(1.3726412313979864*10^(+01)+I*(2.3980738960240043*10^(+01))),
F[4, 291]->(-3.1462969150012272*10^(+00)+I*(-3.4965262548485012*10^(+00))),
F[4, 292]->(-1.3516832765839918*10^(-03)+I*(-1.2325055334194467*10^(-03))),
F[4, 293]->(-3.2913232629196294*10^(+00)+I*(-2.8218848554748406*10^(+00))),
F[4, 294]->(1.1381757492749739*10^(+02)+I*(9.0962282218973129*10^(+01))),
F[4, 295]->(2.4058672050369223*10^(+00)+I*(4.9032904868254237*10^(+00))),
F[4, 296]->(-4.0549297570956142*10^(+00)+I*(2.0967653493235687*10^(+01))),
F[4, 297]->(-1.3974689534492191*10^(+02)+I*(-2.9385401975800292*10^(+01))),
F[4, 298]->(3.3244200099640480*10^(+01)+I*(-8.5139489772992505*10^(+01))),
F[4, 300]->(-2.8311549274146719*10^(+00)+I*(-9.5425234027497794*10^(+01))),
F[4, 301]->(-5.8068633423536312*10^(+01)+I*(-2.1804748615927885*10^(+01))),
F[4, 304]->(-1.4710317057450148*10^(+01)+I*(-2.9803611453342512*10^(+01))),
F[4, 305]->(5.8356852352843731*10^(+00)+I*(-1.2586632420690183*10^(+01))),
F[4, 308]->(-9.6739261357364086*10^(+00)+I*(-1.0018825147631679*10^(+01))),
F[4, 309]->(6.1269986354114012*10^(+00)+I*(5.2667395082056045*10^(-01))),
F[4, 310]->(-6.2310755187989926*10^(+01)+I*(9.8889943249941614*10^(-01))),
F[4, 312]->(-3.6994703570449392*10^(+00)+I*(8.9997695570332525*10^(+01))),
F[4, 313]->(-5.3149577765160565*10^(+00)+I*(-9.9043475689684857*10^(-01))),
F[4, 314]->(1.0581454818223730*10^(+02)+I*(8.6260090657661522*10^(+01))),
F[4, 318]->(6.9490752380260506*10^(-02)+I*(0.0000000000000000*10^(+00))),
F[4, 319]->(6.2783095487149403*10^(+00)+I*(2.4073341747289518*10^(+01))),
F[4, 320]->(4.3780852729157677*10^(-01)+I*(0.0000000000000000*10^(+00))),
F[4, 321]->(-4.6372889734059264*10^(+00)+I*(-1.8352558408185985*10^(+01))),
F[4, 322]->(3.8237650332263082*10^(+00)+I*(3.7941731583253627*10^(+01))),
F[4, 323]->(-1.0614587796067960*10^(+00)+I*(-9.9255410289055268*10^(-02))),
F[4, 324]->(8.2837564209502226*10^(+00)+I*(-7.2686142546980541*10^(+00))),
F[4, 325]->(-2.9399892649909692*10^(+01)+I*(1.4493572284854110*10^(+01))),
F[4, 326]->(-1.0953399961722489*10^(+01)+I*(1.0837793270793458*10^(+02))),
F[4, 327]->(-5.5182282082831506*10^(+01)+I*(-4.9516813352805471*10^(+01))),
F[4, 328]->(-1.8476892233093651*10^(+00)+I*(1.7687614208508620*10^(+01))),
F[4, 329]->(-1.0187787840538471*10^(+00)+I*(-3.0317885300034764*10^(+00))),
F[4, 330]->(3.0666051232888094*10^(+00)+I*(6.1033886316298620*10^(+00))),
F[1, 1, 1]->(0.0000000000000000*10^(+00)+I*(0.0000000000000000*10^(+00))),
F[1, 1, 2]->(-9.0394331387736659*10^(-01)+I*(0.0000000000000000*10^(+00))),
F[1, 1, 3]->(-1.4251610693448336*10^(+00)+I*(0.0000000000000000*10^(+00))),
F[1, 1, 4]->(-1.2801575085533365*10^(+00)+I*(0.0000000000000000*10^(+00))),
F[1, 1, 5]->(-1.2801236396018070*10^(+00)+I*(0.0000000000000000*10^(+00))),
F[1, 1, 6]->(-1.1487370938379111*10^(+00)+I*(0.0000000000000000*10^(+00))),
F[1, 1, 7]->(-2.1759254017822975*10^(+00)+I*(0.0000000000000000*10^(+00))),
F[1, 1, 8]->(-7.3077270265483951*10^(-01)+I*(0.0000000000000000*10^(+00))),
F[1, 1, 9]->(-9.0396656406205400*10^(-01)+I*(0.0000000000000000*10^(+00))),
F[1, 1, 10]->(-7.3079225588729690*10^(-01)+I*(0.0000000000000000*10^(+00))),
F[1, 2, 2]->(-3.2573419294674055*10^(-01)+I*(0.0000000000000000*10^(+00))),
F[1, 2, 3]->(-5.1914275681259425*10^(-01)+I*(0.0000000000000000*10^(+00))),
F[1, 2, 6]->(-3.8131445384282181*10^(-01)+I*(0.0000000000000000*10^(+00))),
F[1, 2, 7]->(-6.5686799340829549*10^(-01)+I*(0.0000000000000000*10^(+00))),
F[1, 2, 8]->(-5.1912693336315230*10^(-01)+I*(0.0000000000000000*10^(+00))),
F[1, 2, 9]->(-1.2047761553037181*10^(-01)+I*(0.0000000000000000*10^(+00))),
F[2, 1, 1]->(9.9621737266180665*10^(-01)+I*(0.0000000000000000*10^(+00))),
F[2, 1, 2]->(9.2780319922836374*10^(-01)+I*(0.0000000000000000*10^(+00))),
F[2, 1, 3]->(7.9148902094574680*10^(-01)+I*(0.0000000000000000*10^(+00))),
F[2, 1, 4]->(3.4227904809559589*10^(-01)+I*(0.0000000000000000*10^(+00))),
F[2, 1, 5]->(8.1695408755927623*10^(-01)+I*(0.0000000000000000*10^(+00))),
F[2, 1, 6]->(8.1796021482017656*10^(-01)+I*(0.0000000000000000*10^(+00))),
F[2, 1, 7]->(7.1499642000753960*10^(-01)+I*(0.0000000000000000*10^(+00))),
F[2, 1, 8]->(7.9320291791243069*10^(-01)+I*(0.0000000000000000*10^(+00))),
F[2, 1, 9]->(6.0804852510127527*10^(-01)+I*(0.0000000000000000*10^(+00))),
F[2, 1, 10]->(7.1732970140701013*10^(-02)+I*(0.0000000000000000*10^(+00))),
F[2, 1, 11]->(2.3250049544859798*10^(-05)+I*(0.0000000000000000*10^(+00))),
F[2, 1, 12]->(8.1540028565824985*10^(-01)+I*(0.0000000000000000*10^(+00))),
F[2, 1, 13]->(6.7468122967917532*10^(-01)+I*(0.0000000000000000*10^(+00))),
F[2, 1, 14]->(-4.6363871467965512*10^(-01)+I*(0.0000000000000000*10^(+00))),
F[2, 1, 15]->(-1.8081586083645179*10^(-01)+I*(0.0000000000000000*10^(+00))),
F[2, 2, 1]->(-0.0000000000000000*10^(+00)+I*(1.8895583344185332*10^(+00))),
F[2, 2, 4]->(-0.0000000000000000*10^(+00)+I*(3.9532814760648431*10^(+00))),
F[2, 2, 7]->(0.0000000000000000*10^(+00)+I*(-3.6381593025929266*10^(+00))),
F[2, 2, 9]->(0.0000000000000000*10^(+00)+I*(-1.6220207180073369*10^(+00))),
F[4, 48]->(-6.4988161645491942*10^(+01)+I*(-6.1551582454629639*10^(+01))),
F[4, 189]->(1.5269401584929490*10^(+01)+I*(-7.0251047338764096*10^(+01))),
F[4, 281]->(-3.6445832423000804*10^(+00)+I*(-4.4427621405277691*10^(+01))),
F[4, 99]->(-1.4291789514046224*10^(+02)+I*(-1.4396401772045547*10^(+01))),
F[4, 306]->(-1.0617473937443185*10^(+01)+I*(-3.3111273661048230*10^(+01))),
F[4, 307]->(2.4901034383524930*10^(+01)+I*(3.4028191928774277*10^(+01))),
F[4, 311]->(4.6656143645458918*10^(+00)+I*(-2.4766535973881616*10^(+01)))}
